…
precip_2016 <- readxl::read_excel('./data/HealthyHarborWaterWheelTotals2018-7-28.xlsx',sheet=5, range = 'A2:B15') %>% 
  mutate(year= rep(2016,13)) %>% 
  filter(!Total=='NA', !Month=='NA')

precip_full <- rbind(precip_2016,precip_2017) %>% 
  mutate(Month = as.factor(Month))
levels(precip_full$Month) <- month.name
precip_full
```

    ## # A tibble: 24 x 3
    ##    Month     Total  year
    ##    <fct>     <dbl> <dbl>
    ##  1 January    3.23  2016
    ##  2 February   5.32  2016
    ##  3 March      2.24  2016
    ##  4 April      1.78  2016
    ##  5 May        5.19  2016
    ##  6 June       3.2   2016
    ##  7 July       6.09  2016
    ##  8 August     3.96  2016
    ##  9 September  4.53  2016
    ## 10 October    0.62  2016
    ## # ... with 14 more rows
…
